--max_speed=17 --lca=1
--max_speed=17 --lca=0
--max_speed=30 --lca=1
--max_speed=30 --lca=0
--max_speed=17 --lca=1
--max_speed=17 --lca=0
--max_speed=30 --lca=1
--max_speed=30 --lca=0
--max_speed=17 --lca=1
--max_speed=17 --lca=0
--max_speed=30 --lca=1
--max_speed=30 --lca=0
--max_speed=17 --lca=1
--max_speed=17 --lca=0
--max_speed=30 --lca=1
--max_speed=30 --lca=0
